[ {
  "id" : "header_logo",
  "name" : "header_logo",
  "display_width" : null,
  "label" : "Header Logo",
  "help_text" : "",
  "inline_help_text" : "",
  "required" : false,
  "locked" : true,
  "responsive" : true,
  "resizable" : true,
  "show_loading" : false,
  "type" : "image",
  "default" : {
    "size_type" : "auto",
    "src" : "https://23962694.fs1.hubspotusercontent-na1.net/hubfs/23962694/v1-FutureBridge_Logotype_White_RGB.png",
    "alt" : null,
    "loading" : "disabled"
  }
}, {
  "id" : "header_logo_url",
  "name" : "header_logo_url",
  "display_width" : null,
  "label" : "Header Logo URL",
  "help_text" : "",
  "inline_help_text" : "",
  "required" : false,
  "locked" : true,
  "supported_types" : [ "EXTERNAL", "CONTENT", "FILE", "EMAIL_ADDRESS", "BLOG" ],
  "type" : "url",
  "default" : {
    "content_id" : null,
    "href" : "https://www.futurebridge.com/",
    "type" : "EXTERNAL"
  }
}, {
  "id" : "menu",
  "name" : "menu",
  "display_width" : null,
  "label" : "Menu",
  "help_text" : "",
  "inline_help_text" : "",
  "required" : false,
  "locked" : true,
  "placeholder" : "",
  "type" : "menu",
  "default" : 134854367121
}, {
  "id" : "hamburger_icon",
  "name" : "hamburger_icon",
  "display_width" : null,
  "label" : "Hamburger Icon ",
  "help_text" : "",
  "inline_help_text" : "",
  "required" : false,
  "locked" : true,
  "icon_set" : "fontawesome-5.0.10",
  "type" : "icon",
  "default" : {
    "name" : "bars",
    "unicode" : "f0c9",
    "type" : "SOLID"
  }
}, {
  "id" : "mobile_view_menu",
  "name" : "mobile_view_menu",
  "display_width" : null,
  "label" : "Mobile View Menu",
  "help_text" : "",
  "inline_help_text" : "",
  "required" : false,
  "locked" : true,
  "placeholder" : "",
  "type" : "menu",
  "default" : 135417402384
}, {
  "id" : "right_menu",
  "name" : "right_menu",
  "display_width" : null,
  "label" : "Right Menu",
  "help_text" : "",
  "inline_help_text" : "",
  "required" : false,
  "locked" : true,
  "occurrence" : {
    "min" : 1,
    "max" : 2,
    "sorting_label_field" : null,
    "default" : 2
  },
  "children" : [ {
    "id" : "right_menu.menu_item",
    "name" : "menu_item",
    "display_width" : null,
    "label" : "Menu Item",
    "help_text" : "",
    "inline_help_text" : "",
    "required" : false,
    "locked" : false,
    "children" : [ {
      "id" : "right_menu.menu_item.menu_item",
      "name" : "menu_item",
      "display_width" : null,
      "label" : "Text Item",
      "help_text" : "",
      "inline_help_text" : "",
      "required" : false,
      "locked" : false,
      "validation_regex" : "",
      "validation_error_message" : "",
      "placeholder" : "",
      "allow_new_line" : false,
      "show_emoji_picker" : false,
      "type" : "text",
      "default" : "Sign in"
    }, {
      "id" : "right_menu.menu_item.link",
      "name" : "link",
      "display_width" : null,
      "label" : "Link",
      "help_text" : "",
      "inline_help_text" : "",
      "required" : false,
      "locked" : false,
      "supported_types" : [ "EXTERNAL", "CONTENT", "FILE", "EMAIL_ADDRESS", "BLOG" ],
      "show_advanced_rel_options" : false,
      "type" : "link",
      "default" : {
        "url" : {
          "content_id" : null,
          "type" : "EXTERNAL",
          "href" : ""
        },
        "open_in_new_tab" : false,
        "no_follow" : false
      }
    } ],
    "tab" : "CONTENT",
    "expanded" : false,
    "type" : "group",
    "default" : {
      "menu_item" : "Sign in",
      "link" : {
        "url" : {
          "content_id" : null,
          "type" : "EXTERNAL",
          "href" : ""
        },
        "open_in_new_tab" : false,
        "no_follow" : false
      }
    }
  } ],
  "tab" : "CONTENT",
  "expanded" : false,
  "type" : "group",
  "default" : [ {
    "menu_item" : {
      "menu_item" : "Sign in",
      "link" : {
        "url" : {
          "content_id" : null,
          "type" : "EXTERNAL",
          "href" : ""
        },
        "open_in_new_tab" : false,
        "no_follow" : false
      }
    }
  }, {
    "menu_item" : {
      "menu_item" : "Sign in",
      "link" : {
        "url" : {
          "content_id" : null,
          "type" : "EXTERNAL",
          "href" : ""
        },
        "open_in_new_tab" : false,
        "no_follow" : false
      }
    }
  } ]
}, {
  "id" : "button_section",
  "name" : "button_section",
  "display_width" : null,
  "label" : "Button Section",
  "help_text" : "",
  "inline_help_text" : "",
  "required" : false,
  "locked" : true,
  "children" : [ {
    "id" : "button_section.button_text",
    "name" : "button_text",
    "display_width" : null,
    "label" : "Button Text",
    "help_text" : "",
    "inline_help_text" : "",
    "required" : false,
    "locked" : false,
    "validation_regex" : "",
    "validation_error_message" : "",
    "placeholder" : "",
    "allow_new_line" : false,
    "show_emoji_picker" : false,
    "type" : "text",
    "default" : "Contact Us"
  }, {
    "id" : "button_section.link",
    "name" : "link",
    "display_width" : null,
    "label" : "Link",
    "help_text" : "",
    "inline_help_text" : "",
    "required" : false,
    "locked" : false,
    "supported_types" : [ "EXTERNAL", "CONTENT", "FILE", "EMAIL_ADDRESS", "BLOG" ],
    "show_advanced_rel_options" : false,
    "type" : "link",
    "default" : {
      "url" : {
        "content_id" : null,
        "type" : "EXTERNAL",
        "href" : ""
      },
      "open_in_new_tab" : false,
      "no_follow" : false
    }
  } ],
  "tab" : "CONTENT",
  "expanded" : false,
  "type" : "group",
  "default" : {
    "button_text" : "Contact Us",
    "link" : {
      "url" : {
        "content_id" : null,
        "type" : "EXTERNAL",
        "href" : ""
      },
      "open_in_new_tab" : false,
      "no_follow" : false
    }
  }
}, {
  "id" : "ae05152d-f023-af16-5cd4-bd771deb40c8",
  "name" : "serach_placeholder",
  "display_width" : null,
  "label" : "Serach Placeholder",
  "required" : false,
  "locked" : true,
  "validation_regex" : "",
  "allow_new_line" : false,
  "show_emoji_picker" : false,
  "type" : "text",
  "default" : "Search..."
}, {
  "id" : "c2a23119-b620-4f92-2067-c50cc4f9b5f4",
  "name" : "search_close_icon",
  "display_width" : null,
  "label" : "Search Close Icon",
  "required" : false,
  "locked" : true,
  "icon_set" : "fontawesome-5.14.0",
  "type" : "icon",
  "default" : {
    "name" : "Times",
    "unicode" : "f00d",
    "type" : "SOLID"
  }
} ]