{
  "global" : false,
  "content_types" : [ "LANDING_PAGE", "SITE_PAGE" ],
  "host_template_types" : [ "PAGE" ],
  "module_id" : 135053573499,
  "label" : "Pricing Plan Tabs",
  "is_available_for_new_content" : true
}