{
  "global" : false,
  "content_types" : [ "LANDING_PAGE", "SITE_PAGE" ],
  "host_template_types" : [ "PAGE" ],
  "module_id" : 139629732230,
  "label" : "Ebook form",
  "is_available_for_new_content" : true
}