[ {
  "id" : "show_hide",
  "name" : "show_hide",
  "display_width" : null,
  "label" : "Show Module",
  "help_text" : "",
  "inline_help_text" : "",
  "required" : false,
  "locked" : false,
  "display" : "checkbox",
  "type" : "boolean",
  "default" : true
}, {
  "id" : "section_id",
  "name" : "section_id",
  "display_width" : null,
  "label" : "Section Id",
  "help_text" : "",
  "inline_help_text" : "",
  "required" : false,
  "locked" : false,
  "validation_regex" : "",
  "validation_error_message" : "",
  "placeholder" : "",
  "allow_new_line" : false,
  "show_emoji_picker" : false,
  "type" : "text",
  "default" : "image slider"
}, {
  "id" : "title",
  "name" : "title",
  "display_width" : null,
  "label" : "Title",
  "help_text" : "",
  "inline_help_text" : "",
  "required" : false,
  "locked" : false,
  "validation_regex" : "",
  "validation_error_message" : "",
  "placeholder" : "",
  "allow_new_line" : false,
  "show_emoji_picker" : false,
  "type" : "text",
  "default" : "Meet Our Team"
}, {
  "id" : "94e34793-64d1-9f0f-1980-bd32905442ff",
  "name" : "style",
  "display_width" : null,
  "label" : "Style",
  "required" : false,
  "locked" : false,
  "children" : [ {
    "id" : "style.section_spacing",
    "name" : "section_spacing",
    "display_width" : null,
    "label" : "Section Spacing",
    "help_text" : "",
    "inline_help_text" : "",
    "required" : false,
    "locked" : false,
    "children" : [ {
      "id" : "style.section_spacing.desktop_spacing",
      "name" : "desktop_spacing",
      "display_width" : null,
      "label" : "Desktop Spacing",
      "help_text" : "",
      "inline_help_text" : "",
      "required" : false,
      "locked" : false,
      "type" : "spacing",
      "default" : { }
    }, {
      "id" : "style.section_spacing.mobile_spacing",
      "name" : "mobile_spacing",
      "display_width" : null,
      "label" : "Mobile Spacing",
      "help_text" : "",
      "inline_help_text" : "",
      "required" : false,
      "locked" : false,
      "type" : "spacing",
      "default" : { }
    } ],
    "tab" : "STYLE",
    "expanded" : false,
    "type" : "group",
    "default" : { }
  }, {
    "id" : "dc896561-8f07-6956-7979-b23226dce679",
    "name" : "background",
    "display_width" : null,
    "label" : "Background",
    "required" : false,
    "locked" : false,
    "children" : [ {
      "id" : "f2632dcb-aa32-ed5d-feea-9a08b33724bf",
      "name" : "backgrund_type",
      "display_width" : null,
      "label" : "Background type",
      "required" : false,
      "locked" : false,
      "display" : "radio",
      "choices" : [ [ "none", "None" ], [ "color", "Color" ], [ "gradient", "Gradient" ], [ "image", "Image" ] ],
      "multiple" : false,
      "reordering_enabled" : true,
      "preset" : null,
      "type" : "choice",
      "default" : "color"
    }, {
      "id" : "style.section_background_color",
      "name" : "section_background_color",
      "display_width" : null,
      "label" : "Section Background color",
      "help_text" : "",
      "inline_help_text" : "",
      "required" : false,
      "locked" : false,
      "visibility" : {
        "controlling_field" : "f2632dcb-aa32-ed5d-feea-9a08b33724bf",
        "controlling_field_path" : null,
        "controlling_value_regex" : "color",
        "property" : null,
        "operator" : "EQUAL",
        "access" : null
      },
      "type" : "color",
      "default" : {
        "color" : "#F1F1F1",
        "opacity" : 100
      }
    }, {
      "id" : "style.background.gradient_field",
      "name" : "gradient_field",
      "display_width" : null,
      "label" : "Gradient",
      "required" : false,
      "locked" : false,
      "visibility" : {
        "controlling_field" : "f2632dcb-aa32-ed5d-feea-9a08b33724bf",
        "controlling_field_path" : null,
        "controlling_value_regex" : "gradient",
        "property" : null,
        "operator" : "EQUAL",
        "access" : null
      },
      "type" : "gradient",
      "default" : { }
    }, {
      "id" : "style.background.section_background_image",
      "name" : "section_background_image",
      "display_width" : null,
      "label" : "Section Background image",
      "required" : false,
      "locked" : false,
      "visibility" : {
        "controlling_field" : "f2632dcb-aa32-ed5d-feea-9a08b33724bf",
        "controlling_field_path" : null,
        "controlling_value_regex" : "image",
        "property" : null,
        "operator" : "EQUAL",
        "access" : null
      },
      "type" : "backgroundimage",
      "default" : {
        "background_position" : "MIDDLE_CENTER",
        "background_size" : "cover",
        "src" : "https://5887777.fs1.hubspotusercontent-na1.net/hubfs/5887777/kickoff-theme/speaker_bg.png"
      }
    } ],
    "tab" : "STYLE",
    "expanded" : false,
    "type" : "group",
    "default" : { }
  }, {
    "id" : "716f59eb-d701-cb13-a8ac-ed868723eb49",
    "name" : "custom_color",
    "display_width" : null,
    "label" : "Custom Color",
    "required" : false,
    "locked" : false,
    "display" : "toggle",
    "type" : "boolean",
    "default" : true
  }, {
    "id" : "d36c9e3d-9b99-4917-b79d-836e8178bd48",
    "name" : "heading_color",
    "display_width" : null,
    "label" : "Heading Color",
    "required" : false,
    "locked" : false,
    "visibility" : {
      "controlling_field" : "716f59eb-d701-cb13-a8ac-ed868723eb49",
      "controlling_field_path" : null,
      "controlling_value_regex" : "true",
      "property" : null,
      "operator" : "EQUAL",
      "access" : null
    },
    "type" : "color",
    "default" : {
      "color" : "#FFFFFF",
      "opacity" : 100
    }
  }, {
    "id" : "90a6a265-3c33-e959-dd39-a750eee6f6db",
    "name" : "content_color",
    "display_width" : null,
    "label" : "Content Color",
    "required" : false,
    "locked" : false,
    "visibility" : {
      "controlling_field" : "716f59eb-d701-cb13-a8ac-ed868723eb49",
      "controlling_field_path" : null,
      "controlling_value_regex" : "true",
      "property" : null,
      "operator" : "EQUAL",
      "access" : null
    },
    "type" : "color",
    "default" : {
      "color" : "#ffffff",
      "opacity" : 100
    }
  }, {
    "id" : "75375d0a-3970-3f63-0763-0c87dd1d3240",
    "name" : "slide_dot_color",
    "display_width" : null,
    "label" : "Slider Dot Color",
    "required" : false,
    "locked" : false,
    "visibility" : {
      "controlling_field" : "716f59eb-d701-cb13-a8ac-ed868723eb49",
      "controlling_field_path" : null,
      "controlling_value_regex" : "true",
      "property" : null,
      "operator" : "EQUAL",
      "access" : null
    },
    "type" : "color",
    "default" : {
      "color" : "#7A7A81",
      "opacity" : 100
    }
  }, {
    "id" : "2842c7a8-3589-a265-0ff9-6bbd353c920b",
    "name" : "slider_dot_color_active",
    "display_width" : null,
    "label" : "Slider Dot Color Active",
    "required" : false,
    "locked" : false,
    "visibility" : {
      "controlling_field" : "716f59eb-d701-cb13-a8ac-ed868723eb49",
      "controlling_field_path" : null,
      "controlling_value_regex" : "true",
      "property" : null,
      "operator" : "EQUAL",
      "access" : null
    },
    "type" : "color",
    "default" : {
      "color" : "#3574e3",
      "opacity" : 100
    }
  }, {
    "id" : "e9d398e7-6736-a648-e417-027c3d824499",
    "name" : "slider_settings",
    "display_width" : null,
    "label" : "Slider Settings",
    "required" : false,
    "locked" : false,
    "children" : [ {
      "id" : "5ba2db80-fd7f-4d8c-3b29-034682426e85",
      "name" : "arrow",
      "display_width" : null,
      "label" : "Arrow",
      "required" : false,
      "locked" : false,
      "display" : "toggle",
      "type" : "boolean",
      "default" : false
    }, {
      "id" : "b5809bc4-0b58-e841-f986-9b86a87c2236",
      "name" : "dots",
      "display_width" : null,
      "label" : "Dots",
      "required" : false,
      "locked" : false,
      "display" : "toggle",
      "type" : "boolean",
      "default" : true
    }, {
      "id" : "65808cad-9d2e-8458-e5aa-e379051ec03f",
      "name" : "autoplay",
      "display_width" : null,
      "label" : "AutoPlay",
      "required" : false,
      "locked" : false,
      "display" : "toggle",
      "type" : "boolean",
      "default" : true
    }, {
      "id" : "3e4343b7-7e1b-f1f3-5a64-2e90fef17d4d",
      "name" : "autoplay_speed",
      "display_width" : null,
      "label" : "Autoplay Speed",
      "required" : false,
      "locked" : false,
      "visibility" : {
        "controlling_field" : "65808cad-9d2e-8458-e5aa-e379051ec03f",
        "controlling_field_path" : null,
        "controlling_value_regex" : "true",
        "property" : null,
        "operator" : "EQUAL",
        "access" : null
      },
      "display" : "slider",
      "max" : 20000,
      "step" : 500,
      "type" : "number",
      "default" : 5000
    }, {
      "id" : "33c099c4-b9c6-fb56-f6f7-3ca38f50dc27",
      "name" : "slides_to_show",
      "display_width" : null,
      "label" : "Slides To Show",
      "required" : false,
      "locked" : false,
      "display" : "slider",
      "min" : 1,
      "max" : 8,
      "step" : 1,
      "type" : "number",
      "default" : 4
    }, {
      "id" : "6dcb48c8-666a-92c3-386e-6c20312a6b40",
      "name" : "slides_to_scroll",
      "display_width" : null,
      "label" : "Slides To Scroll",
      "required" : false,
      "locked" : false,
      "display" : "slider",
      "min" : 1,
      "max" : 8,
      "step" : 1,
      "type" : "number",
      "default" : 3
    }, {
      "id" : "d11d8b99-d84f-9fa4-9903-7564600e253b",
      "name" : "space_between_each_slide",
      "display_width" : null,
      "label" : "Space between each slide",
      "required" : false,
      "locked" : false,
      "display" : "slider",
      "min" : 0,
      "max" : 100,
      "step" : 1,
      "type" : "number"
    } ],
    "tab" : "STYLE",
    "expanded" : false,
    "type" : "group",
    "default" : {
      "arrow" : false,
      "dots" : true,
      "autoplay" : true,
      "autoplay_speed" : 5000,
      "slides_to_show" : 4,
      "slides_to_scroll" : 3
    }
  } ],
  "tab" : "STYLE",
  "expanded" : false,
  "type" : "group",
  "default" : {
    "custom_color" : true,
    "heading_color" : {
      "color" : "#FFFFFF",
      "opacity" : 100
    },
    "content_color" : {
      "color" : "#ffffff",
      "opacity" : 100
    },
    "slide_dot_color" : {
      "color" : "#7A7A81",
      "opacity" : 100
    },
    "slider_dot_color_active" : {
      "color" : "#3574e3",
      "opacity" : 100
    },
    "slider_settings" : {
      "arrow" : false,
      "dots" : true,
      "autoplay" : true,
      "autoplay_speed" : 5000,
      "slides_to_show" : 4,
      "slides_to_scroll" : 3
    }
  }
}, {
  "id" : "d80f6fd4-c5e7-8d35-466e-a86feabd91df",
  "name" : "slide",
  "display_width" : null,
  "label" : "Slide",
  "required" : false,
  "locked" : false,
  "occurrence" : {
    "min" : 1,
    "max" : null,
    "sorting_label_field" : null,
    "default" : 6
  },
  "children" : [ {
    "id" : "b6f47531-3623-a175-dd31-63f1ba0063d5",
    "name" : "heading",
    "display_width" : null,
    "label" : "Heading",
    "required" : false,
    "locked" : false,
    "validation_regex" : "",
    "allow_new_line" : false,
    "show_emoji_picker" : false,
    "type" : "text",
    "default" : ""
  }, {
    "id" : "3c0a2025-dc7c-a0db-1581-bf8c640f002d",
    "name" : "image",
    "display_width" : null,
    "label" : "Image",
    "required" : false,
    "locked" : false,
    "responsive" : true,
    "resizable" : true,
    "show_loading" : true,
    "type" : "image",
    "default" : {
      "src" : "",
      "loading" : "lazy"
    }
  }, {
    "id" : "1686aab1-4c70-f2a7-eaaa-9f308efd23fb",
    "name" : "link_field",
    "display_width" : null,
    "label" : "Link",
    "required" : false,
    "locked" : false,
    "supported_types" : [ "EXTERNAL", "CONTENT", "FILE", "EMAIL_ADDRESS", "BLOG", "CALL_TO_ACTION" ],
    "show_advanced_rel_options" : false,
    "type" : "link",
    "default" : {
      "url" : {
        "content_id" : null,
        "type" : "EXTERNAL",
        "href" : ""
      },
      "open_in_new_tab" : false,
      "no_follow" : false
    }
  } ],
  "tab" : "CONTENT",
  "expanded" : false,
  "type" : "group",
  "default" : [ {
    "heading" : "",
    "image" : {
      "src" : "",
      "loading" : "lazy"
    },
    "link_field" : {
      "url" : {
        "content_id" : null,
        "type" : "EXTERNAL",
        "href" : ""
      },
      "open_in_new_tab" : false,
      "no_follow" : false
    }
  }, {
    "heading" : "",
    "image" : {
      "src" : "",
      "loading" : "lazy"
    },
    "link_field" : {
      "url" : {
        "content_id" : null,
        "type" : "EXTERNAL",
        "href" : ""
      },
      "open_in_new_tab" : false,
      "no_follow" : false
    }
  }, {
    "heading" : "",
    "image" : {
      "src" : "",
      "loading" : "lazy"
    },
    "link_field" : {
      "url" : {
        "content_id" : null,
        "type" : "EXTERNAL",
        "href" : ""
      },
      "open_in_new_tab" : false,
      "no_follow" : false
    }
  }, {
    "heading" : "",
    "image" : {
      "src" : "",
      "loading" : "lazy"
    },
    "link_field" : {
      "url" : {
        "content_id" : null,
        "type" : "EXTERNAL",
        "href" : ""
      },
      "open_in_new_tab" : false,
      "no_follow" : false
    }
  }, {
    "heading" : "",
    "image" : {
      "src" : "",
      "loading" : "lazy"
    },
    "link_field" : {
      "url" : {
        "content_id" : null,
        "type" : "EXTERNAL",
        "href" : ""
      },
      "open_in_new_tab" : false,
      "no_follow" : false
    }
  }, {
    "heading" : "",
    "image" : {
      "src" : "",
      "loading" : "lazy"
    },
    "link_field" : {
      "url" : {
        "content_id" : null,
        "type" : "EXTERNAL",
        "href" : ""
      },
      "open_in_new_tab" : false,
      "no_follow" : false
    }
  } ]
} ]