[ {
  "id" : "show_hide",
  "name" : "show_hide",
  "display_width" : null,
  "label" : "Show Module",
  "help_text" : "",
  "inline_help_text" : "",
  "required" : false,
  "locked" : false,
  "display" : "checkbox",
  "type" : "boolean",
  "default" : true
}, {
  "id" : "section_id",
  "name" : "section_id",
  "display_width" : null,
  "label" : "Section Id",
  "help_text" : "",
  "inline_help_text" : "",
  "required" : false,
  "locked" : false,
  "validation_regex" : "",
  "validation_error_message" : "",
  "placeholder" : "",
  "allow_new_line" : false,
  "show_emoji_picker" : false,
  "type" : "text",
  "default" : "Form"
}, {
  "id" : "1f8e3e78-ac4d-5a2c-bbab-5c465df63734",
  "name" : "title",
  "display_width" : null,
  "label" : "Title",
  "required" : false,
  "locked" : false,
  "validation_regex" : "",
  "allow_new_line" : false,
  "show_emoji_picker" : false,
  "type" : "text",
  "default" : "Talk to our expert"
}, {
  "id" : "ceffc345-55e5-7d07-106c-18f820cea018",
  "name" : "title_font",
  "display_width" : null,
  "label" : "Title Font",
  "required" : false,
  "locked" : false,
  "load_external_fonts" : true,
  "type" : "font",
  "default" : {
    "size" : 44,
    "size_unit" : "px",
    "color" : "#000000"
  }
}, {
  "id" : "af2cfd96-fe46-fe77-58d2-c8a53030be15",
  "name" : "sub_title",
  "display_width" : null,
  "label" : "Sub Title",
  "required" : false,
  "locked" : false,
  "validation_regex" : "",
  "allow_new_line" : false,
  "show_emoji_picker" : false,
  "type" : "text",
  "default" : "Please fill out the form and we will get back to you with more details!"
}, {
  "id" : "f9058d68-2fcb-77d3-c81c-d491afd8216b",
  "name" : "form_field",
  "display_width" : null,
  "label" : "Form",
  "required" : false,
  "locked" : false,
  "type" : "form",
  "default" : {
    "form_id" : "dad7b045-29db-4443-8816-332bd6dcdaac",
    "response_type" : "inline",
    "message" : "Thanks for submitting the form.",
    "gotowebinar_webinar_key" : null,
    "form_type" : "HUBSPOT"
  }
}, {
  "id" : "4ec1678e-7711-1267-13ec-ca913555fc08",
  "name" : "subtitle_font",
  "display_width" : null,
  "label" : "SubTitle Font",
  "required" : false,
  "locked" : false,
  "load_external_fonts" : true,
  "type" : "font",
  "default" : {
    "size" : 24,
    "size_unit" : "px",
    "color" : "#4b4b55"
  }
}, {
  "id" : "style",
  "name" : "style",
  "display_width" : null,
  "label" : "Styles",
  "required" : false,
  "locked" : false,
  "children" : [ {
    "id" : "style.section_spacing",
    "name" : "section_spacing",
    "display_width" : null,
    "label" : "Section Spacing",
    "help_text" : "",
    "inline_help_text" : "",
    "required" : false,
    "locked" : false,
    "children" : [ {
      "id" : "style.section_spacing.desktop_spacing",
      "name" : "desktop_spacing",
      "display_width" : null,
      "label" : "Desktop Spacing",
      "help_text" : "",
      "inline_help_text" : "",
      "required" : false,
      "locked" : false,
      "type" : "spacing",
      "default" : { }
    }, {
      "id" : "style.section_spacing.mobile_spacing",
      "name" : "mobile_spacing",
      "display_width" : null,
      "label" : "Mobile Spacing",
      "help_text" : "",
      "inline_help_text" : "",
      "required" : false,
      "locked" : false,
      "type" : "spacing",
      "default" : { }
    } ],
    "tab" : "STYLE",
    "expanded" : false,
    "type" : "group",
    "default" : { }
  }, {
    "id" : "dc896561-8f07-6956-7979-b23226dce679",
    "name" : "background",
    "display_width" : null,
    "label" : "Background",
    "required" : false,
    "locked" : false,
    "children" : [ {
      "id" : "f2632dcb-aa32-ed5d-feea-9a08b33724bf",
      "name" : "backgrund_type",
      "display_width" : null,
      "label" : "Background type",
      "required" : false,
      "locked" : false,
      "display" : "radio",
      "choices" : [ [ "none", "None" ], [ "color", "Color" ], [ "gradient", "Gradient" ], [ "image", "Image" ] ],
      "multiple" : false,
      "reordering_enabled" : true,
      "preset" : null,
      "type" : "choice",
      "default" : "none"
    }, {
      "id" : "style.section_background_color",
      "name" : "section_background_color",
      "display_width" : null,
      "label" : "Section Background color",
      "help_text" : "",
      "inline_help_text" : "",
      "required" : false,
      "locked" : false,
      "visibility" : {
        "controlling_field" : "f2632dcb-aa32-ed5d-feea-9a08b33724bf",
        "controlling_field_path" : null,
        "controlling_value_regex" : "color",
        "property" : null,
        "operator" : "EQUAL",
        "access" : null
      },
      "type" : "color",
      "default" : {
        "color" : "#f9fafc",
        "opacity" : 100
      }
    }, {
      "id" : "style.background.gradient_field",
      "name" : "gradient_field",
      "display_width" : null,
      "label" : "Gradient",
      "required" : false,
      "locked" : false,
      "visibility" : {
        "controlling_field" : "f2632dcb-aa32-ed5d-feea-9a08b33724bf",
        "controlling_field_path" : null,
        "controlling_value_regex" : "gradient",
        "property" : null,
        "operator" : "EQUAL",
        "access" : null
      },
      "type" : "gradient",
      "default" : {
        "colors" : [ {
          "color" : {
            "r" : 75,
            "g" : 75,
            "b" : 85,
            "a" : 1
          }
        }, {
          "color" : {
            "r" : 75,
            "g" : 75,
            "b" : 85,
            "a" : 0.8
          }
        } ],
        "side_or_corner" : {
          "verticalSide" : "BOTTOM",
          "horizontalSide" : null
        }
      }
    }, {
      "id" : "style.background.section_background_image",
      "name" : "section_background_image",
      "display_width" : null,
      "label" : "Section Background image",
      "required" : false,
      "locked" : false,
      "visibility" : {
        "controlling_field" : "f2632dcb-aa32-ed5d-feea-9a08b33724bf",
        "controlling_field_path" : null,
        "controlling_value_regex" : "image",
        "property" : null,
        "operator" : "EQUAL",
        "access" : null
      },
      "type" : "backgroundimage",
      "default" : {
        "background_position" : "MIDDLE_CENTER",
        "background_size" : "cover",
        "src" : "https://23962694.fs1.hubspotusercontent-na1.net/hubfs/23962694/5de0b6657e77eaab35472ac2747f0890.webp"
      }
    } ],
    "tab" : "STYLE",
    "expanded" : false,
    "type" : "group",
    "default" : { }
  } ],
  "tab" : "STYLE",
  "expanded" : false,
  "type" : "group"
} ]