{
  "global" : true,
  "content_types" : [ "LANDING_PAGE", "SITE_PAGE" ],
  "smart_type" : "NOT_SMART",
  "host_template_types" : [ "PAGE" ],
  "module_id" : 136051507259,
  "label" : "Scroll Top",
  "is_available_for_new_content" : true
}