{
  "global" : false,
  "content_types" : [ "LANDING_PAGE", "SITE_PAGE", "BLOG_LISTING", "BLOG_POST" ],
  "inline_help_text" : "Use this module to place tabs",
  "icon" : "../../../Product_Launch_Easy_Free_DIY%20child/images/module-icons/tabs.svg",
  "host_template_types" : [ "PAGE", "BLOG_POST", "BLOG_LISTING" ],
  "module_id" : 134302202526,
  "label" : "Tabs",
  "is_available_for_new_content" : true
}